…
    ## `summarise()` has grouped output by 'year', 'month'. You can override using the
    ## `.groups` argument.

    ## # A tibble: 28 × 4
    ## # Groups:   year, month [4]
    ##     year month   weekdays  median_duration
    ##    <dbl> <chr>   <ord>               <dbl>
    ##  1  2020 January Monday               8.65
    ##  2  2020 January Tuesday              8.57
    ##  3  2020 January Wednesday            8.79
    ##  4  2020 January Thursday             8.50
    ##  5  2020 January Friday               8.64
    ##  6  2020 January Saturday             9.87
    ##  7  2020 January Sunday               9.97
    ##  8  2020 July    Monday              13.4 
    ##  9  2020 July    Tuesday             13.8 
    ## 10  2020 July    Wednesday           13.9 
    ## # ℹ 18 more rows
…
